module github.com/xiaofangjian/yafile

go 1.19

require (
	github.com/BurntSushi/toml v1.2.0
	github.com/cloudreve/Cloudreve/v3 v3.0.0-20221008112457-63b536e5db1b
	github.com/gin-gonic/gin v1.8.1
	github.com/pkg/errors v0.9.1
	github.com/sirupsen/logrus v1.8.1
)

require (
	cloud.google.com/go v0.81.0 // indirect
	github.com/beorn7/perks v1.0.1 // indirect
	github.com/bgentry/speakeasy v0.1.0 // indirect
	github.com/census-instrumentation/opencensus-proto v0.3.0 // indirect
	github.com/cespare/xxhash/v2 v2.1.1 // indirect
	github.com/cloudflare/cfssl v1.6.1 // indirect
	github.com/cncf/udpa/go v0.0.0-20210322005330-6414d713912e // indirect
	github.com/coreos/go-semver v0.3.0 // indirect
	github.com/coreos/go-systemd/v22 v22.3.2 // indirect
	github.com/cpuguy83/go-md2man/v2 v2.0.0 // indirect
	github.com/denisenkom/go-mssqldb v0.0.0-20190515213511-eb9f6a1743f3 // indirect
	github.com/duo-labs/webauthn v0.0.0-20220330035159-03696f3d4499 // indirect
	github.com/dustin/go-humanize v1.0.0 // indirect
	github.com/envoyproxy/go-control-plane v0.9.9-0.20210217033140-668b12f5399d // indirect
	github.com/envoyproxy/protoc-gen-validate v0.6.1 // indirect
	github.com/fatih/color v1.9.0 // indirect
	github.com/form3tech-oss/jwt-go v3.2.3+incompatible // indirect
	github.com/fullstorydev/grpcurl v1.8.1 // indirect
	github.com/fxamacker/cbor/v2 v2.4.0 // indirect
	github.com/gin-contrib/sessions v0.0.1 // indirect
	github.com/gin-contrib/sse v0.1.0 // indirect
	github.com/go-ini/ini v1.50.0 // indirect
	github.com/go-playground/locales v0.14.0 // indirect
	github.com/go-playground/universal-translator v0.18.0 // indirect
	github.com/go-playground/validator/v10 v10.10.0 // indirect
	github.com/go-sql-driver/mysql v1.6.0 // indirect
	github.com/goccy/go-json v0.9.7 // indirect
	github.com/gofrs/uuid v4.0.0+incompatible // indirect
	github.com/gogo/protobuf v1.3.2 // indirect
	github.com/golang-jwt/jwt/v4 v4.1.0 // indirect
	github.com/golang/groupcache v0.0.0-20210331224755-41bb18bfe9da // indirect
	github.com/golang/mock v1.5.0 // indirect
	github.com/golang/protobuf v1.5.2 // indirect
	github.com/gomodule/redigo v2.0.0+incompatible // indirect
	github.com/google/btree v1.0.1 // indirect
	github.com/google/certificate-transparency-go v1.1.2-0.20210511102531-373a877eec92 // indirect
	github.com/google/go-cmp v0.5.5 // indirect
	github.com/google/uuid v1.3.0 // indirect
	github.com/gorilla/context v1.1.1 // indirect
	github.com/gorilla/securecookie v1.1.1 // indirect
	github.com/gorilla/sessions v1.1.3 // indirect
	github.com/gorilla/websocket v1.4.2 // indirect
	github.com/grpc-ecosystem/go-grpc-middleware v1.3.0 // indirect
	github.com/grpc-ecosystem/go-grpc-prometheus v1.2.0 // indirect
	github.com/grpc-ecosystem/grpc-gateway v1.16.0 // indirect
	github.com/hashicorp/go-version v1.3.0 // indirect
	github.com/inconshreveable/mousetrap v1.0.0 // indirect
	github.com/jhump/protoreflect v1.8.2 // indirect
	github.com/jinzhu/gorm v1.9.11 // indirect
	github.com/jinzhu/inflection v1.0.0 // indirect
	github.com/jonboulle/clockwork v0.2.2 // indirect
	github.com/json-iterator/go v1.1.12 // indirect
	github.com/leodido/go-urn v1.2.1 // indirect
	github.com/lib/pq v1.10.1 // indirect
	github.com/mattn/go-colorable v0.1.4 // indirect
	github.com/mattn/go-isatty v0.0.14 // indirect
	github.com/mattn/go-runewidth v0.0.12 // indirect
	github.com/mattn/go-sqlite3 v1.14.7 // indirect
	github.com/matttproud/golang_protobuf_extensions v1.0.1 // indirect
	github.com/mitchellh/mapstructure v1.1.2 // indirect
	github.com/modern-go/concurrent v0.0.0-20180306012644-bacd9c7ef1dd // indirect
	github.com/modern-go/reflect2 v1.0.2 // indirect
	github.com/olekukonko/tablewriter v0.0.5 // indirect
	github.com/pelletier/go-toml/v2 v2.0.1 // indirect
	github.com/prometheus/client_golang v1.10.0 // indirect
	github.com/prometheus/client_model v0.2.0 // indirect
	github.com/prometheus/common v0.24.0 // indirect
	github.com/prometheus/procfs v0.6.0 // indirect
	github.com/rivo/uniseg v0.2.0 // indirect
	github.com/russross/blackfriday/v2 v2.1.0 // indirect
	github.com/soheilhy/cmux v0.1.5 // indirect
	github.com/speps/go-hashids v2.0.0+incompatible // indirect
	github.com/spf13/cobra v1.1.3 // indirect
	github.com/spf13/pflag v1.0.5 // indirect
	github.com/tmc/grpc-websocket-proxy v0.0.0-20201229170055-e5319fda7802 // indirect
	github.com/ugorji/go/codec v1.2.7 // indirect
	github.com/urfave/cli v1.22.5 // indirect
	github.com/x448/float16 v0.8.4 // indirect
	github.com/xiang90/probing v0.0.0-20190116061207-43a291ad63a2 // indirect
	go.etcd.io/bbolt v1.3.5 // indirect
	go.etcd.io/etcd/api/v3 v3.5.0-alpha.0 // indirect
	go.etcd.io/etcd/client/v2 v2.305.0-alpha.0 // indirect
	go.etcd.io/etcd/client/v3 v3.5.0-alpha.0 // indirect
	go.etcd.io/etcd/etcdctl/v3 v3.5.0-alpha.0 // indirect
	go.etcd.io/etcd/pkg/v3 v3.5.0-alpha.0 // indirect
	go.etcd.io/etcd/raft/v3 v3.5.0-alpha.0 // indirect
	go.etcd.io/etcd/server/v3 v3.5.0-alpha.0 // indirect
	go.etcd.io/etcd/tests/v3 v3.5.0-alpha.0 // indirect
	go.etcd.io/etcd/v3 v3.5.0-alpha.0 // indirect
	go.uber.org/atomic v1.7.0 // indirect
	go.uber.org/multierr v1.7.0 // indirect
	go.uber.org/zap v1.16.0 // indirect
	golang.org/x/crypto v0.0.0-20210921155107-089bfa567519 // indirect
	golang.org/x/mod v0.4.2 // indirect
	golang.org/x/net v0.0.0-20210510120150-4163338589ed // indirect
	golang.org/x/oauth2 v0.0.0-20210427180440-81ed05c6b58c // indirect
	golang.org/x/sys v0.0.0-20211020174200-9d6173849985 // indirect
	golang.org/x/text v0.3.7 // indirect
	golang.org/x/time v0.0.0-20210220033141-f8bda1e9f3ba // indirect
	golang.org/x/tools v0.1.0 // indirect
	golang.org/x/xerrors v0.0.0-20200804184101-5ec99f83aff1 // indirect
	google.golang.org/appengine v1.6.7 // indirect
	google.golang.org/genproto v0.0.0-20210510173355-fb37daa5cd7a // indirect
	google.golang.org/grpc v1.37.0 // indirect
	google.golang.org/protobuf v1.28.0 // indirect
	gopkg.in/cheggaaa/pb.v1 v1.0.28 // indirect
	gopkg.in/yaml.v2 v2.4.0 // indirect
	sigs.k8s.io/yaml v1.2.0 // indirect
)
